Compress PTAGIS Data — compress • PITcleanr
…
    Value

a tibble

    Author

    Kevin See

    Examples

cth_file = system.file("extdata", "PRO_Steelhead_2019.csv", package = "PITcleanr")
compress(cth_file)
#> # A tibble: 320 x 9
#>    tag_code       node    slot event_type_name n_dets min_det            
#>    <chr>          <chr>  <int> <chr>            <int> <dttm>             
#>  1 384.3B23A8BBDA TOPPEC     1 Mark                 1 2015-12-13 09:00:00
#>  2 384.3B23A8BBDA BO2        2 Observation          8 2018-07-07 06:11:40
#>  3 384.3B23A8BBDA BO4        3 Observation          6 2018-07-07 10:30:32
#>  4 384.3B23A8BBDA TD2        4 Observation          4 2018-07-08 16:45:51
#>  5 384.3B23A8BBDA JO1        5 Observation          2 2018-07-10 06:30:55
#>  6 384.3B23A8BBDA MC1        6 Observation         13 2018-07-13 14:58:46
#>  7 384.3B23A8BBDA PRA        7 Observation          2 2018-07-21 15:34:26
#>  8 384.3B23A8BBDA RIA        8 Observation          3 2018-07-25 15:21:42
#>  9 384.3B23A8BBDA RRF        9 Observation          3 2018-07-28 12:28:48
#> 10 384.3B23A8BBDA PRO       10 Recapture            1 2019-04-10 06:46:35
#> # i 310 more rows
#> # i 3 more variables: max_det <dttm>, duration <drtn>, travel_time <drtn>
…
