Extract Sites — extractSites • PITcleanr
…
a tibble

    Author

    Kevin See

    Examples

ptagis_file = system.file("extdata", "TUM_Chinook_2015.csv", package = "PITcleanr", mustWork = TRUE)
ptagis_cth = readCTH(ptagis_file)
extractSites(ptagis_cth)
#> Querying INT sites' metadata
#> Querying INT sites' configuration information
#> Querying MRR sites' metadata
#> # A tibble: 54 x 8
#>    site_code site_name site_type type  latitude longitude rkm   site_description
#>    <chr>     <chr>     <chr>     <chr>    <dbl>     <dbl> <chr> <chr>           
#>  1 NASONC    Nason Cr~ NA        MRR       47.8     -121. 754.~ River           
#>  2 JDJ       John Day~ Juvenile~ INT       45.7     -121. 347   This site monit~
#>  3 NAL       Lower Na~ Instream~ INT       47.8     -121. 754.~ This is a perma~
#>  4 NAU       Upper Na~ Instream~ INT       47.8     -121. 754.~ This is a perma~
#>  5 BO4       Bonnevil~ Adult Fi~ INT       45.6     -122. 234   This site monit~
#>  6 MC2       McNary W~ Adult Fi~ INT       45.9     -119. 470   This site monit~
#>  7 PRA       Priest R~ Adult Fi~ INT       46.6     -120. 639   Priest Rapids D~
#>  8 TD1       The Dall~ Adult Fi~ INT       45.6     -121. 308   This site monit~
#>  9 TUF       Tumwater~ Adult Fi~ INT       47.6     -121. 754.~ Adult Fishway a~
#> 10 TUM       Tumwater~ NA        MRR       47.6     -121. 754.~ Dam             
#> # i 44 more rows
…
