Parent-Child Tables • PITcleanr
…
# read in configuration file
my_configuration <- system.file("extdata",
                                "configuration_TUM.csv",
                                package = "PITcleanr",
                                mustWork = TRUE) |>
  read_csv(show_col_types = F)

# expand the parent-child table to include nodes
parent_child_nodes = addParentChildNodes(parent_child,
                                         configuration = my_configuration)

# view expanded parent-child table
parent_child_nodes
#> # A tibble: 22 x 4
#>    parent child parent_hydro child_hydro
#>    <chr>  <chr>        <dbl>       <dbl>
#>  1 PESB0  PESA0     50011578    50011578
#>  2 ICLB0  ICLA0     50012366    50012366
#>  3 ICLA0  LNF       50012366    50016752
#>  4 ICLA0  ICMB0     50012366    50017117
#>  5 TUM    PESB0     50013200    50011578
#>  6 TUM    ICLB0     50013200    50012366
#>  7 TUM    UWE       50013200    50018330
#>  8 TUM    CHLB0     50013200    50022268
#>  9 TUM    CHWB0     50013200    50045832
#> 10 ICMB0  ICMA0     50017117    50017117
#> # i 12 more rows
…
