PITcleanr Workshop • PITcleanr
…
# build capture histories
cap_hist <-
  buildCapHist(filter_ch = comp_filter,
               parent_child = parent_child,
               configuration = config,
               drop_nodes = T)

# view capture histories
cap_hist
#> # A tibble: 1,406 × 2
#>    tag_code       cap_hist            
#>    <chr>          <chr>               
#>  1 384.3B239AC47B 00001000000100010000
#>  2 3DD.003B9DD720 00001000000000000000
#>  3 3DD.003B9DD725 00001000100000000000
#>  4 3DD.003B9DDAB0 00001000000000000000
#>  5 3DD.003B9F123C 00001000000100000000
#>  6 3DD.003BC7A654 00001000000100101100
#>  7 3DD.003BC7F0E3 00001000000100101100
#>  8 3DD.003BC80A3C 00001000000100010000
#>  9 3DD.003BC80D81 00001000000100111100
#> 10 3DD.003BC80F20 00001000000000100000
#> # ℹ 1,396 more rows
…
sites_sf <-
  extractSites(ptagis_cth,
               as_sf = T,
               configuration = configuration,
               max_date = "20220630") %>%
  arrange(desc(rkm))

sites_sf
#> Simple feature collection with 26 features and 7 fields
#> Geometry type: POINT
#> Dimension:     XY
#> Bounding box:  xmin: -2000140 ymin: 2523078 xmax: -1366605 ymax: 2823989
#> Projected CRS: NAD83 / Conus Albers
#> # A tibble: 26 × 8
#>    site_code site_name          site_type type  rkm   site_description node_site
#>    <chr>     <chr>              <chr>     <chr> <chr> <chr>            <chr>    
#>  1 BTL       Lower Big Timber,… Instream… INT   522.… In-stream detec… BTL      
#>  2 BTIMBC    Big Timber Creek,… NA        MRR   522.… River            BTIMBC   
#>  3 LLS       Lemhi Little Spri… Instream… INT   522.… In-stream detec… LLS      
#>  4 LLSPRC    Lemhi Little Spri… NA        MRR   522.… River            LLSPRC   
#>  5 LRW       Lemhi River Weir   Instream… INT   522.… This is an in-s… LRW      
#>  6 HYC       Hayden Creek In-s… Instream… INT   522.… This is an inst… HYC      
#>  7 HYDTRP    Hayden Creek Rota… NA        MRR   522.… TraporWeir       HYDTRP   
#>  8 LEMTRP    Upper Lemhi River… NA        MRR   522.… TraporWeir       LEMTRP   
#>  9 HAYDNC    Hayden Creek, Lem… NA        MRR   522.… River            HAYDNC   
#> 10 KEN       Kenney Creek In-s… Instream… INT   522.… In-stream detec… KEN      
#> # ℹ 16 more rows
#> # ℹ 1 more variable: geometry <POINT [m]>
…
Often, the inputs to a CJS model include a capture history matrix,
with one row per tag, and columns of 0s and 1s describing if each tag
was detected at each time period or node. We can easily construct such
capture history matrices with the buildCapHist() function,
using all the detections we determined to keep.

# translate PIT tag observations into capture histories, one per tag
cap_hist <- 
  buildCapHist(prepped_df,
               parent_child = parent_child,
               configuration = configuration)

# show an example
cap_hist
#> # A tibble: 3,622 × 2
#>    tag_code       cap_hist    
#>    <chr>          <chr>       
#>  1 384.1B79730415 100000000000
#>  2 384.1B7973117F 100000000000
#>  3 3D9.1C2DEF3A60 111010000000
#>  4 3DD.003D57F3DD 101001000000
#>  5 3DD.003D57F3DE 100000000000
#>  6 3DD.003D57F3DF 100000000000
#>  7 3DD.003D57F3E0 110000000000
#>  8 3DD.003D57F3E1 110000000000
#>  9 3DD.003D57F3E2 101011000000
#> 10 3DD.003D57F3E3 101000000000
#> # ℹ 3,612 more rows
…
Users have the option to keep each detection node as a separate
column when creating the capture histories, by setting
drop_nodes = F.

cap_hist2 <- 
  buildCapHist(prepped_df,
               parent_child = parent_child,
               configuration = configuration,
               drop_nodes = F)
cap_hist2
#> # A tibble: 3,622 × 14
#>    tag_code      cap_hist LEMTRP   EVU   EVL LLRTP   LLR   GRJ   GOJ   LMJ   ICH
#>    <chr>         <chr>     <dbl> <dbl> <dbl> <dbl> <dbl> <dbl> <dbl> <dbl> <dbl>
#>  1 384.1B797304… 1000000…      1     0     0     0     0     0     0     0     0
#>  2 384.1B797311… 1000000…      1     0     0     0     0     0     0     0     0
#>  3 3D9.1C2DEF3A… 1110100…      1     1     1     0     1     0     0     0     0
#>  4 3DD.003D57F3… 1010010…      1     0     1     0     0     1     0     0     0
#>  5 3DD.003D57F3… 1000000…      1     0     0     0     0     0     0     0     0
#>  6 3DD.003D57F3… 1000000…      1     0     0     0     0     0     0     0     0
#>  7 3DD.003D57F3… 1100000…      1     1     0     0     0     0     0     0     0
#>  8 3DD.003D57F3… 1100000…      1     1     0     0     0     0     0     0     0
#>  9 3DD.003D57F3… 1010110…      1     0     1     0     1     1     0     0     0
#> 10 3DD.003D57F3… 1010000…      1     0     1     0     0     0     0     0     0
#> # ℹ 3,612 more rows
#> # ℹ 3 more variables: MCJ <dbl>, JDJ <dbl>, B2J <dbl>
…
