Querying, Compressing, and Making Sense of PIT Tag Detection Data • PITcleanr
…
The Columbia Basin PIT Tag Information System (PTAGIS) is the centralized regional database for PIT-tag detections within the Columbia River Basin. It contains a record of each detection of every PIT tag, including the initial detection, or “mark”, when the tag is implanted in the fish, detections on PIT-tag antennas, recaptures (e.g. at weirs) and recoveries (e.g. carcass surveys). It contains a record of every individual detection, which means potentially multiple records of a tag being detected on the same antenna over and over e.g., in the case that it is not moving. Therefore, querying PTAGIS for all of these detections leads to a wealth of data, which can be unwieldy for the user. PITcleanr aims to compress that data to a more manageable size, without losing any of the information contained in that dataset.

PITcleanr starts with a complete capture history query from PTAGIS for a select group of tags of interest. The user will need to compile this list of tags themselves, ideally in a .txt file with one row per tag number, to make it easy to upload to a PTAGIS query.

For convenience, we’ve included one such file with PITcleanr. The following code can be used to find the path to that example file that was installed with the package, titled “tag_list_TUM_2015.txt”, containing IDs for Chinook salmon adults implanted with PIT tags at Tumwater Dam in 2015. Feel free to copy/paste that file to use as a template for creating your own tag list, in which case, you can follow along with your own tags of interest.

system.file("extdata", 
            "tag_list_TUM_2015.txt", 
            package = "PITcleanr",
            mustWork = TRUE)

The example file of tag codes is very simple:

#> # A tibble: 2,019 x 1
#>    X1            
#>    <chr>         
#>  1 384.3B239AD241
#>  2 3D9.1BF24B20F5
#>  3 3D9.1C2D76FB78
#>  4 3D9.1C2D770193
#>  5 3D9.1C2D91B3DE
#>  6 3D9.1C2D925C52
#>  7 3D9.1C2D929849
#>  8 3D9.1C2D93282A
#>  9 3D9.1C2DB9A65E
#> 10 3D9.1C2DC026E4
#> # i 2,009 more rows
…
Here, we’ll run the qcTagHistory() function, again on the file path (ptagis_file) of the PTAGIS complete tag history query output, and save the results to an object qc_detections.

qc_detections = qcTagHistory(ptagis_file)

# view qc_detections
qc_detections
#> $disown_tags
#> character(0)
#> 
#> $orphan_tags
#> character(0)
#> 
#> $rel_time_batches
#> # A tibble: 23 x 11
#>    mark_species_name  year event_site_type_description event_type_name
#>    <chr>             <dbl> <chr>                       <chr>          
#>  1 Chinook            2011 Hatchery                    Mark           
#>  2 Chinook            2012 Hatchery                    Mark           
#>  3 Chinook            2012 Hatchery                    Mark           
#>  4 Chinook            2012 River                       Mark           
#>  5 Chinook            2012 Trap or Weir                Mark           
#>  6 Chinook            2013 Acclimation Pond            Recapture      
#>  7 Chinook            2013 Hatchery                    Mark           
#>  8 Chinook            2013 River                       Mark           
#>  9 Chinook            2013 River                       Mark           
#> 10 Chinook            2013 River                       Mark           
#> # i 13 more rows
#> # i 7 more variables: event_site_code_value <chr>, n_tags <int>,
#> #   n_events <int>, n_release <int>, rel_greq_event <int>, rel_ls_event <int>,
#> #   event_rel_ratio <dbl>
…
Note, if the configuration file contains multiple nodes for some sites (e.g., a node for each array at a site), then the parent-child table can be expanded to accommodate these nodes using the addParentChildNodes() function. The function essentially “expands” (adds rows) to the existing parent-child table to accommodate those additional nodes. Note: the addParentChildNodes() function assumes that the parent-child table is arranged so that children are upstream of parents, and nodes designated as A0 are upstream of those designated B0. Currently, the function can only handle up to two nodes at each site.

Here, we use the addParentChildNodes() function on our existing parent_child table, and provide our existing configuration tibble to the configuration argument to expand the tibble. Our results are saved to a new object parent_child_nodes.

parent_child_nodes = addParentChildNodes(parent_child,
                                         configuration = configuration)

# view expanded parent-child table
parent_child_nodes
#> # A tibble: 22 x 4
#>    parent child parent_hydro child_hydro
#>    <chr>  <chr>        <dbl>       <dbl>
#>  1 PESB0  PESA0     50011578    50011578
#>  2 ICLB0  ICLA0     50012366    50012366
#>  3 ICLA0  LNF       50012366    50016752
#>  4 ICLA0  ICMB0     50012366    50017117
#>  5 TUM    PESB0     50013200    50011578
#>  6 TUM    ICLB0     50013200    50012366
#>  7 TUM    UWE       50013200    50018330
#>  8 TUM    CHLB0     50013200    50022268
#>  9 TUM    CHWB0     50013200    50045832
#> 10 ICMB0  ICMA0     50017117    50017117
#> # i 12 more rows

Movement Paths & Node Order

PITcleanr provides a function to determine the detection locations a tag would pass between a starting point (e.g, a tagging or release location) and an ending point (e.g., a spawning location, in the case of adult salmon), based on the parent-child table. We refer to these detection locations as a movement path.

The function buildPaths() will provide the movement path leading to each node in a parent-child table. It provides a row for each node, and then provides the path that an individual would have to take to get to that given node. The build_paths() function could be performed on either our parent_child or parent_child_nodes objects.

buildPaths(parent_child_nodes)
#> # A tibble: 22 x 2
#>    end_loc path                       
#>    <chr>   <chr>                      
#>  1 PESA0   TUM PESB0 PESA0            
#>  2 ICLA0   TUM ICLB0 ICLA0            
#>  3 LNF     TUM ICLB0 ICLA0 LNF        
#>  4 ICMB0   TUM ICLB0 ICLA0 ICMB0      
#>  5 PESB0   TUM PESB0                  
#>  6 ICLB0   TUM ICLB0                  
#>  7 UWE     TUM UWE                    
#>  8 CHLB0   TUM CHLB0                  
#>  9 CHWB0   TUM CHWB0                  
#> 10 ICMA0   TUM ICLB0 ICLA0 ICMB0 ICMA0
#> # i 12 more rows
…
