Reading PIT Tag Data Into R • PITcleanr
…
Complete Capture History

PITcleanr starts with a complete capture history query from PTAGIS for a select group of tags of interest. The user will need to compile this list of tags themselves, ideally in a .txt file with one row per tag number, to make it easy to upload to a PTAGIS query.

For convenience, we’ve included one such file with PITcleanr, which is saved to the user’s computer when PITcleanr is installed. The file, “tag_list_TUM_2015.txt”, contains tag IDs for Chinook salmon adults implanted with PIT tags at Tumwater Dam in 2015. The following code can be used to find the path to this example file. The user can use this as a template for creating their own tag list as well.

system.file("extdata", 
            "tag_list_TUM_2015.txt", 
            package = "PITcleanr",
            mustWork = TRUE)

The example file of tag codes is very simple:

#> # A tibble: 2,019 x 1
#>    X1            
#>    <chr>         
#>  1 384.3B239AD241
#>  2 3D9.1BF24B20F5
#>  3 3D9.1C2D76FB78
#>  4 3D9.1C2D770193
#>  5 3D9.1C2D91B3DE
#>  6 3D9.1C2D925C52
#>  7 3D9.1C2D929849
#>  8 3D9.1C2D93282A
#>  9 3D9.1C2DB9A65E
#> 10 3D9.1C2DC026E4
#> # i 2,009 more rows
…
